<?xml version="1.0" standalone="no"?>
<!DOCTYPE svg PUBLIC "-//W3C//DTD SVG 20010904//EN"
 "http://www.w3.org/TR/2001/REC-SVG-20010904/DTD/svg10.dtd">
<svg version="1.0" xmlns="http://www.w3.org/2000/svg"
 width="2600.000000pt" height="2600.000000pt" viewBox="0 0 2600.000000 2600.000000"
 preserveAspectRatio="xMidYMid meet">
<metadata>
Created by potrace 1.14, written by Peter Selinger 2001-2017
</metadata>
<g transform="translate(0.000000,2600.000000) scale(0.100000,-0.100000)"
fill="#000000" stroke="none">
<path d="M14141 24935 c-9 -246 -33 -639 -43 -705 -6 -47 -11 -89 -9 -94 1 -5
-1 -16 -5 -25 -4 -9 -6 -27 -5 -40 2 -14 -1 -21 -8 -17 -6 4 -8 -7 -5 -31 5
-30 3 -35 -6 -23 -9 12 -10 11 -5 -7 3 -12 -3 -83 -14 -156 -40 -257 -148
-1751 -241 -3297 -16 -278 -32 -543 -35 -590 -11 -171 -46 -815 -65 -1195 -11
-214 -27 -514 -35 -665 -8 -151 -17 -327 -20 -390 -2 -63 -12 -250 -20 -415
-8 -165 -22 -455 -30 -645 -8 -190 -24 -550 -35 -800 -46 -1053 -96 -2363
-135 -3510 -34 -1011 -48 -1347 -120 -2905 -25 -528 -49 -1066 -55 -1195 -5
-129 -12 -272 -15 -318 l-6 -82 25 0 c18 0 27 6 30 23 3 12 21 249 41 527 l36
505 46 130 c123 353 296 685 474 913 l49 62 -75 0 c-41 0 -75 3 -75 6 0 3 85
94 189 202 103 108 260 274 349 367 l160 170 -154 3 c-98 1 -154 6 -154 13 0
16 104 148 280 354 153 180 297 363 368 467 l32 47 -85 27 c-47 16 -85 32 -85
37 0 8 58 108 134 232 17 27 93 132 168 233 76 101 130 181 120 178 -117 -35
-272 -66 -272 -55 0 4 32 36 71 71 74 66 143 147 224 263 27 39 68 91 91 116
71 77 135 228 189 439 9 36 18 72 21 81 3 11 -44 -10 -138 -62 -78 -43 -143
-77 -146 -75 -7 7 46 102 203 361 224 371 285 499 285 600 0 68 -30 95 -108
95 -32 0 -94 -9 -137 -20 -43 -11 -80 -18 -82 -16 -2 2 17 62 42 132 122 335
160 555 116 666 l-10 28 -106 -56 c-74 -39 -105 -51 -105 -41 0 12 181 544
254 746 15 41 15 43 -2 38 -9 -2 -79 -24 -154 -48 -76 -23 -140 -40 -143 -37
-3 3 15 40 39 84 92 161 177 398 225 626 25 116 25 124 9 110 -7 -5 -71 -40
-143 -78 -71 -37 -146 -75 -165 -86 -30 -16 -35 -16 -38 -3 -5 23 50 183 148
430 134 336 162 442 138 524 -25 84 -102 100 -274 56 -54 -14 -104 -25 -111
-25 -8 0 21 68 70 168 165 329 238 530 240 656 1 64 -1 70 -28 93 -24 22 -36
25 -75 20 -65 -8 -146 -40 -241 -97 -45 -28 -86 -50 -91 -50 -22 0 -9 38 116
333 118 277 160 390 180 490 17 79 14 119 -9 151 -21 28 -93 15 -193 -35 -45
-23 -85 -39 -88 -37 -2 3 32 108 76 234 118 334 144 446 120 518 -25 77 -99
73 -267 -15 -81 -42 -113 -54 -113 -43 0 8 30 94 66 192 158 424 197 575 170
660 -20 60 -122 40 -251 -47 -16 -12 -34 -21 -39 -21 -12 0 0 55 49 226 65
224 78 307 72 449 -2 66 -10 141 -17 168 l-12 47 -135 -70 c-140 -73 -168 -83
-159 -52 19 58 57 333 67 482 11 162 9 413 -3 425 -3 3 -52 -17 -109 -45 -80
-39 -105 -48 -107 -36 -2 8 24 106 58 218 77 252 100 354 100 441 0 55 -4 71
-21 88 -24 24 -49 21 -121 -16 -26 -14 -49 -21 -52 -17 -16 27 -30 318 -29
627 1 325 7 462 44 955 l12 155 -76 260 c-41 143 -77 269 -80 280 -3 14 -5 11
-6 -10z"/>
<path d="M14012 23842 c-91 -358 -286 -895 -362 -996 -53 -70 -108 -191 -165
-361 -26 -77 -49 -142 -51 -144 -2 -2 -15 2 -29 9 -116 62 -189 -185 -231
-777 -4 -62 -10 -93 -18 -93 -7 0 -54 52 -105 115 -51 63 -97 115 -101 115
-10 0 -56 -170 -71 -263 -25 -164 4 -397 75 -589 13 -38 21 -68 17 -68 -4 0
-52 38 -106 84 -122 104 -194 144 -231 127 -64 -29 -69 -136 -18 -476 39 -264
54 -455 36 -455 -6 0 -21 15 -33 33 -34 49 -101 117 -132 133 -78 42 -122 -73
-120 -321 1 -223 45 -498 102 -643 12 -29 21 -55 21 -57 0 -5 -34 14 -125 69
-70 43 -142 66 -170 56 -70 -25 -79 -146 -26 -343 33 -124 105 -325 167 -468
43 -99 56 -139 45 -139 -5 0 -44 30 -87 66 -92 77 -211 160 -259 180 -172 72
-167 -108 16 -562 11 -27 10 -37 -5 -69 -24 -50 -18 -83 48 -264 29 -80 56
-158 60 -173 l6 -28 -28 18 c-15 9 -97 78 -181 152 -84 74 -161 136 -171 138
-11 2 -25 -7 -35 -22 -15 -23 -16 -34 -5 -93 10 -60 84 -293 152 -480 12 -34
20 -65 16 -69 -4 -3 -50 -9 -102 -13 -53 -4 -99 -10 -102 -14 -3 -3 43 -65
103 -139 59 -73 121 -150 137 -171 29 -39 29 -60 0 -36 -9 7 -24 18 -34 24
-10 5 -50 30 -88 53 -40 24 -89 46 -112 49 -38 5 -40 4 -55 -31 -25 -60 0
-166 128 -528 63 -178 107 -327 107 -362 0 -24 -12 -20 -100 35 -146 90 -208
107 -235 64 -25 -40 3 -115 193 -510 61 -126 117 -254 126 -283 15 -52 15 -53
-5 -47 -10 4 -58 35 -105 71 -123 93 -194 126 -194 89 0 -30 108 -225 213
-383 113 -171 125 -192 110 -192 -5 0 -44 18 -86 40 -73 39 -126 50 -155 32
-9 -6 -2 -31 32 -103 77 -165 158 -360 152 -366 -8 -8 -47 20 -235 171 -136
110 -175 136 -182 125 -26 -39 54 -316 222 -766 43 -117 79 -217 79 -222 0
-18 -33 1 -122 71 -101 78 -98 81 -68 -68 47 -231 112 -420 209 -611 33 -65
58 -119 56 -121 -4 -4 -68 33 -135 78 l-57 39 -6 -42 c-16 -114 -19 -276 -7
-347 23 -136 92 -298 198 -460 67 -104 105 -170 99 -176 -2 -2 -12 5 -22 16
-10 11 -22 20 -26 20 -4 0 -36 20 -71 44 -64 44 -126 78 -164 90 -20 6 -20 6
-6 -111 l15 -117 140 -241 c163 -280 249 -420 322 -527 30 -43 56 -86 60 -98
7 -23 4 -22 -110 30 -59 26 -185 64 -191 57 -1 -1 65 -137 146 -302 156 -316
241 -465 340 -596 33 -44 60 -83 60 -87 0 -3 17 -23 37 -44 20 -21 32 -38 26
-38 -7 0 -15 5 -19 11 -15 24 -158 109 -184 109 -30 0 -65 -32 -57 -53 3 -8
41 -63 84 -123 293 -404 483 -753 597 -1097 59 -178 87 -309 146 -678 41 -255
99 -543 115 -570 2 -3 19 -3 38 -1 l34 4 7 121 c13 240 36 1047 56 1932 22
1005 38 1645 45 1870 3 83 12 348 20 590 53 1565 132 3350 210 4790 29 531 72
1283 80 1400 3 44 16 260 30 480 121 1917 315 4365 380 4786 14 89 24 163 22
165 -1 1 -17 -54 -35 -124z"/>
<path d="M2518 20441 c331 -702 545 -1123 824 -1625 150 -268 150 -269 134
-297 -9 -15 -16 -43 -16 -63 0 -76 84 -235 222 -421 43 -58 78 -109 78 -113 0
-4 -26 -13 -57 -20 -140 -29 -169 -89 -96 -196 34 -49 165 -179 251 -249 34
-28 62 -56 62 -63 0 -6 -13 -17 -29 -24 -16 -6 -37 -20 -46 -30 -15 -16 -14
-20 12 -45 15 -15 57 -44 92 -64 35 -20 63 -40 61 -46 -1 -5 -29 -17 -62 -26
-78 -22 -107 -38 -123 -69 -24 -47 14 -122 126 -245 35 -39 86 -91 112 -115
41 -37 47 -47 42 -71 -12 -51 69 -119 277 -233 37 -20 69 -40 72 -45 3 -5 -47
-8 -112 -7 -179 2 -229 -33 -183 -127 27 -55 135 -173 244 -265 64 -54 86 -80
95 -110 17 -56 74 -117 150 -159 118 -65 110 -74 -66 -66 -127 5 -139 4 -161
-14 l-24 -20 21 -35 c30 -48 142 -153 284 -266 93 -74 118 -99 123 -125 17
-79 81 -139 199 -183 78 -30 73 -42 -19 -43 -109 -2 -233 -31 -271 -65 -67
-57 3 -124 372 -354 130 -81 132 -83 169 -153 37 -71 84 -126 160 -186 l40
-32 -136 2 c-114 1 -140 -1 -162 -16 -15 -10 -27 -23 -27 -31 0 -42 95 -133
275 -261 93 -67 99 -73 117 -127 32 -94 115 -159 263 -204 33 -10 64 -22 70
-26 15 -13 -12 -26 -70 -33 -254 -32 -295 -45 -295 -90 0 -50 167 -185 408
-330 88 -53 114 -74 118 -94 20 -101 86 -145 263 -176 46 -8 86 -17 88 -19 5
-5 1 -6 -167 -30 -132 -19 -202 -40 -237 -71 -27 -23 -27 -25 -13 -52 34 -61
193 -154 440 -258 124 -52 138 -61 188 -115 58 -65 134 -112 258 -162 125 -49
123 -52 -38 -66 -152 -12 -242 -33 -271 -61 -17 -17 -17 -18 2 -43 38 -48 231
-136 501 -228 69 -24 129 -47 134 -51 5 -4 -1 -21 -13 -37 -11 -17 -21 -37
-21 -44 0 -31 59 -64 158 -87 61 -15 74 -28 35 -37 -70 -15 -122 -37 -142 -58
l-22 -24 32 -36 c47 -54 137 -102 446 -241 292 -132 367 -172 342 -185 -8 -4
-41 -10 -75 -13 -62 -5 -124 -29 -124 -48 0 -23 72 -73 185 -128 66 -33 281
-123 477 -202 199 -80 358 -149 358 -156 0 -7 -12 -15 -27 -18 -120 -26 -209
-70 -200 -98 7 -24 148 -84 278 -120 74 -20 258 -66 410 -101 367 -87 374 -90
258 -115 -72 -15 -98 -33 -83 -58 22 -38 208 -114 587 -242 213 -72 423 -147
465 -166 114 -53 353 -185 381 -211 13 -12 35 -24 50 -27 54 -11 692 -387 965
-569 404 -269 573 -427 759 -709 64 -96 139 -202 169 -236 l53 -63 50 6 c57 7
105 27 130 54 16 17 10 27 -104 189 -348 493 -553 831 -775 1281 -194 392
-474 1059 -496 1181 -63 358 -130 641 -171 722 -47 93 -77 102 -114 33 -11
-20 -25 -36 -31 -36 -6 0 -16 26 -23 58 -24 113 -103 399 -142 517 -45 134
-96 238 -120 243 -21 4 -39 -37 -53 -123 -7 -38 -17 -69 -22 -68 -5 1 -35 94
-66 208 -75 268 -159 521 -204 615 -33 70 -77 130 -95 130 -19 0 -51 -49 -67
-100 -9 -31 -21 -57 -27 -59 -5 -1 -30 92 -56 206 -111 495 -192 748 -258 807
-17 16 -23 17 -36 6 -34 -29 -61 -110 -85 -259 -15 -88 -24 -84 -65 34 -43
123 -137 356 -199 494 -49 109 -57 137 -66 225 -14 128 -36 209 -65 236 l-22
21 -31 -26 c-17 -14 -54 -72 -84 -130 -29 -58 -58 -105 -63 -105 -6 0 -26 62
-44 138 -123 500 -263 798 -361 767 -45 -14 -106 -110 -150 -235 -13 -36 -29
-71 -36 -79 -14 -16 -7 -39 -80 249 -57 228 -139 479 -191 591 -41 87 -98 159
-127 159 -31 0 -80 -58 -136 -161 -31 -57 -64 -105 -72 -107 -10 -2 -19 11
-27 38 -21 71 -140 349 -203 475 -101 204 -209 335 -274 335 -55 0 -111 -79
-149 -208 -12 -40 -26 -73 -31 -74 -5 0 -45 89 -90 198 -102 253 -129 311
-200 431 -62 105 -146 198 -188 209 -59 14 -113 -27 -160 -121 -15 -30 -32
-55 -39 -55 -7 1 -48 67 -92 148 -91 167 -212 354 -276 426 -51 58 -123 106
-158 106 -37 0 -102 -74 -127 -145 -11 -32 -26 -61 -32 -63 -6 -2 -53 81 -104
185 -51 103 -123 237 -158 297 -77 130 -172 236 -212 236 -52 0 -94 -79 -119
-223 -6 -38 -15 -65 -20 -60 -4 4 -19 55 -33 113 -32 137 -60 211 -91 240
l-25 24 -31 -23 c-16 -12 -36 -21 -44 -19 -7 2 -63 77 -123 168 -60 91 -136
200 -170 243 -60 75 -132 137 -158 137 -22 0 -53 -51 -74 -121 -15 -51 -25
-69 -38 -69 -22 0 -102 97 -247 300 -225 315 -304 408 -375 445 -42 22 -71 10
-94 -39 -9 -20 -23 -36 -31 -36 -21 0 -455 434 -613 613 -190 215 -448 522
-771 920 -155 191 -285 347 -287 347 -16 0 1215 -1773 1793 -2583 157 -219
283 -401 280 -403 -13 -14 -2107 2978 -2107 3011 0 4 8 1 18 -6 15 -13 16 -12
4 3 -8 10 -19 16 -25 15 -7 -1 -11 6 -11 15 1 10 -2 16 -6 13 -10 -6 -33 22
-26 33 3 5 -1 9 -8 9 -7 0 52 -136 142 -326z m2339 -3194 c89 -122 231 -314
314 -427 84 -113 144 -198 134 -190 -19 16 -198 254 -458 610 -82 113 -154
211 -160 218 -5 6 -6 12 -1 12 5 -1 82 -101 171 -223z m678 -910 c33 -45 136
-180 228 -300 93 -120 167 -221 164 -223 -6 -6 -12 3 -244 306 -224 294 -228
300 -216 299 4 0 35 -37 68 -82z m722 -932 c197 -248 248 -317 178 -240 -50
54 -428 533 -438 553 -13 28 51 -49 260 -313z m439 -548 c87 -105 216 -262
288 -347 160 -191 175 -211 108 -141 -50 52 -526 624 -560 673 -45 64 24 -14
164 -185z m635 -754 c79 -93 210 -241 291 -331 135 -148 155 -172 144 -172
-11 0 -586 652 -586 664 0 3 2 6 4 6 2 0 68 -75 147 -167z m775 -865 c174
-194 333 -370 352 -390 20 -21 34 -40 31 -42 -2 -3 -52 48 -109 112 -58 64
-211 234 -340 377 -248 275 -266 295 -257 295 3 0 149 -159 323 -352z m741
-825 c599 -673 1269 -1434 1297 -1473 20 -29 -89 93 -479 535 -213 242 -550
622 -749 844 -356 398 -403 451 -393 451 3 0 149 -161 324 -357z m1713 -1951
c0 -3 -4 -2 -8 4 -189 214 -362 414 -362 419 0 3 83 -89 185 -205 102 -116
185 -214 185 -218z m75 -79 c27 -32 39 -49 26 -38 -24 21 -86 95 -79 95 2 0
26 -26 53 -57z m125 -143 c34 -38 60 -70 57 -70 -2 0 -35 35 -73 77 -38 42
-64 74 -58 70 7 -4 40 -38 74 -77z m100 -115 c19 -19 32 -35 29 -35 -3 0 -20
16 -39 35 -19 19 -32 35 -29 35 3 0 20 -16 39 -35z m66 -77 l29 -33 -32 29
c-31 28 -38 36 -30 36 2 0 16 -15 33 -32z m89 -98 c10 -11 16 -20 13 -20 -3 0
-13 9 -23 20 -10 11 -16 20 -13 20 3 0 13 -9 23 -20z m51 -62 l29 -33 -32 29
c-31 28 -38 36 -30 36 2 0 16 -15 33 -32z m70 -80 l29 -33 -32 29 c-18 17 -33
31 -33 33 0 8 8 1 36 -29z m64 -73 c13 -14 21 -25 18 -25 -2 0 -15 11 -28 25
-13 14 -21 25 -18 25 2 0 15 -11 28 -25z m85 -95 c10 -11 16 -20 13 -20 -3 0
-13 9 -23 20 -10 11 -16 20 -13 20 3 0 13 -9 23 -20z m51 -62 l29 -33 -32 29
c-31 28 -38 36 -30 36 2 0 16 -15 33 -32z m70 -80 l29 -33 -32 29 c-18 17 -33
31 -33 33 0 8 8 1 36 -29z m70 -80 l29 -33 -32 29 c-31 28 -38 36 -30 36 2 0
16 -15 33 -32z m64 -73 c19 -19 32 -35 29 -35 -3 0 -20 16 -39 35 -19 19 -32
35 -29 35 3 0 20 -16 39 -35z m70 -80 c19 -19 32 -35 29 -35 -3 0 -20 16 -39
35 -19 19 -32 35 -29 35 3 0 20 -16 39 -35z m55 -65 c10 -11 16 -20 13 -20 -3
0 -13 9 -23 20 -10 11 -16 20 -13 20 3 0 13 -9 23 -20z m108 -121 c38 -43 67
-79 64 -79 -2 0 -37 36 -76 80 -40 44 -69 80 -64 79 4 0 39 -36 76 -80z m323
-371 c137 -156 352 -400 478 -543 126 -143 243 -275 260 -294 17 -18 26 -32
19 -30 -6 2 -210 231 -454 509 -243 278 -469 535 -502 573 -32 37 -57 67 -54
67 3 0 117 -127 253 -282z"/>
<path d="M24280 18084 c-572 -294 -1281 -655 -1430 -731 -98 -49 -116 -53 -99
-22 6 12 13 37 15 56 3 19 9 43 14 53 6 10 10 21 10 24 0 5 -215 -157 -230
-174 -3 -3 -32 -25 -65 -50 -33 -24 -65 -49 -71 -55 -7 -5 -24 -19 -40 -30
-34 -25 -200 -151 -217 -165 -33 -29 -122 -90 -129 -90 -5 0 -6 9 -3 21 7 21
8 159 2 166 -9 9 -250 -121 -332 -179 -107 -75 -272 -238 -375 -371 -41 -53
-80 -96 -86 -97 -6 0 -23 60 -39 134 l-29 135 -85 -78 c-201 -183 -409 -421
-483 -551 -13 -22 -28 -40 -34 -40 -6 0 -35 60 -64 134 l-54 133 -215 -197
-216 -197 -104 -177 c-84 -145 -106 -175 -116 -164 -7 7 -36 69 -65 138 -28
69 -56 129 -61 135 -14 14 -284 -265 -377 -389 -91 -123 -166 -254 -215 -372
-18 -43 -37 -81 -42 -84 -6 -3 -24 50 -43 120 -18 69 -38 144 -44 166 l-12 41
-39 -36 c-148 -135 -306 -360 -434 -618 -47 -95 -89 -170 -94 -168 -4 3 -27
64 -51 135 -23 72 -46 130 -49 130 -14 0 -150 -155 -199 -226 -62 -89 -114
-194 -179 -356 -58 -148 -69 -170 -80 -164 -5 3 -21 68 -36 146 l-28 140 -36
-29 c-139 -110 -297 -336 -437 -626 -37 -74 -69 -135 -73 -135 -7 0 -14 27
-42 159 l-11 54 -19 -24 c-99 -126 -280 -417 -398 -641 -40 -76 -76 -138 -81
-138 -5 0 -33 43 -63 96 l-55 96 -19 -29 c-45 -64 -139 -233 -199 -357 -78
-163 -136 -335 -165 -486 -29 -160 -32 -165 -52 -106 -23 68 -66 131 -134 199
l-59 57 -47 -120 c-91 -231 -186 -576 -229 -827 -7 -40 -17 -73 -23 -73 -6 0
-28 42 -50 93 -21 50 -48 112 -58 137 l-20 44 -122 -447 c-67 -246 -125 -451
-129 -454 -11 -12 -16 3 -33 96 -9 50 -19 91 -23 91 -3 0 -64 -207 -135 -460
-71 -253 -134 -460 -140 -460 -6 0 -30 45 -55 100 l-44 100 -18 -72 c-27 -109
-94 -307 -155 -456 -206 -514 -557 -1089 -1042 -1712 -169 -217 -164 -210
-157 -218 7 -6 272 257 3341 3319 l1810 1805 1668 1584 c917 872 1674 1588
1683 1593 83 47 -59 -96 -772 -773 -449 -426 -840 -797 -869 -825 -30 -27
-384 -363 -787 -745 -802 -761 -1378 -1330 -4108 -4058 -1365 -1364 -1809
-1814 -1760 -1781 118 77 282 203 510 390 312 255 348 283 491 386 377 269
718 405 1129 448 74 8 160 15 190 15 l55 0 -50 43 c-28 24 -63 55 -80 70 -16
14 -27 28 -23 32 6 6 120 37 603 159 143 37 268 70 279 74 14 6 -8 20 -98 62
-63 30 -116 60 -116 65 0 6 37 20 83 33 131 36 626 202 692 232 60 26 158 65
183 72 8 2 -29 21 -82 43 -53 22 -96 45 -96 51 0 7 45 19 113 29 165 25 339
63 447 97 103 33 294 114 313 132 7 7 37 27 68 47 l56 34 -144 59 c-82 34
-143 65 -143 73 0 7 8 13 18 13 60 0 385 98 550 166 78 32 395 175 435 196 16
8 11 17 -44 81 -96 113 -99 117 -99 125 0 5 19 14 43 21 110 31 255 94 519
224 286 140 287 141 269 162 -33 37 -111 156 -111 169 0 7 46 32 103 56 147
62 312 145 387 195 112 75 224 205 176 205 -24 0 -298 30 -323 36 -15 3 -23
12 -23 24 0 25 55 53 217 109 l122 43 -14 29 c-25 48 -20 53 65 72 118 27 241
92 322 172 38 36 75 79 83 95 l15 29 -130 68 c-71 37 -130 73 -130 80 0 15 44
45 220 153 164 100 240 154 313 220 59 54 106 128 88 140 -6 3 -52 14 -101 24
-50 11 -90 24 -90 30 0 6 84 74 187 151 247 185 457 365 424 365 -14 0 -277
39 -309 46 -36 7 -19 19 85 59 134 52 269 122 294 153 l21 27 -25 20 c-13 11
-32 25 -43 31 -21 12 -24 8 97 106 144 116 271 232 295 269 14 22 32 43 42 46
9 4 -38 17 -108 30 -205 38 -230 44 -230 56 0 7 73 50 163 96 350 180 484 283
560 429 30 57 30 56 -33 66 -122 18 -220 39 -220 47 0 5 10 13 23 18 12 4 116
41 230 81 l208 73 -70 36 c-42 21 -71 42 -71 51 1 8 44 44 98 80 121 81 258
217 339 336 l62 91 -110 13 c-60 7 -112 16 -115 21 -2 5 13 19 35 33 44 28
115 107 146 163 20 35 146 157 348 335 63 55 74 70 60 75 -84 30 -108 42 -108
56 0 9 209 194 465 412 256 219 474 406 485 417 17 17 -332 -224 -1130 -778
-216 -150 -227 -159 -585 -499 -388 -369 -421 -399 -444 -393 -8 2 153 162
389 386 l404 383 874 607 c751 521 894 624 1008 727 73 66 149 135 168 152 20
18 34 32 31 32 -3 0 -255 -128 -560 -285z"/>
<path d="M1055 10914 c43 -36 287 -154 450 -217 77 -30 304 -114 505 -187 469
-170 468 -169 539 -228 69 -58 168 -115 226 -131 22 -6 89 -18 148 -26 147
-20 154 -25 89 -66 -29 -17 -52 -35 -52 -39 0 -9 537 -272 635 -310 96 -38
216 -70 262 -70 66 0 30 -18 -99 -51 l-132 -32 49 -44 c213 -188 460 -280 828
-309 48 -3 87 -8 87 -11 0 -2 -14 -24 -31 -49 -38 -56 -74 -136 -86 -195 l-10
-46 96 -6 c106 -6 171 -25 284 -84 142 -73 163 -83 222 -99 41 -10 105 -16
200 -16 l140 -1 -64 -28 c-35 -16 -81 -43 -102 -60 -32 -25 -104 -115 -132
-165 -9 -15 106 -75 208 -108 191 -62 357 -80 668 -74 130 3 237 4 237 3 0 -1
-37 -33 -83 -72 -45 -39 -119 -110 -164 -160 l-81 -89 31 -2 c18 -1 95 -10
172 -20 109 -13 218 -17 488 -17 191 0 347 -3 347 -6 0 -3 -10 -10 -22 -16
-69 -32 -209 -168 -190 -184 4 -3 75 -16 157 -27 393 -56 684 -57 940 -1 49
10 95 19 103 19 8 0 -32 -48 -89 -107 l-102 -108 139 -8 c189 -11 519 -2 629
17 50 8 132 26 183 40 50 13 92 20 92 15 0 -5 -15 -26 -33 -46 -56 -63 -85
-107 -93 -137 l-7 -29 109 7 c151 9 415 48 694 101 129 24 236 42 238 40 3 -2
-14 -31 -36 -65 -39 -57 -58 -98 -50 -105 1 -2 35 3 73 10 39 6 113 18 165 24
174 23 393 69 595 125 110 30 201 53 203 52 1 -2 -9 -25 -23 -51 -45 -86 -43
-87 103 -50 205 52 573 120 777 144 218 25 474 33 902 29 493 -5 487 -6 348
58 -139 64 -392 142 -885 272 l-225 60 -160 99 c-88 55 -225 137 -305 183 -80
45 -175 100 -212 121 -36 22 -72 39 -80 39 -7 0 -33 7 -57 16 -60 21 -69 8
-38 -55 13 -28 23 -51 21 -51 -8 0 -95 66 -238 182 -251 202 -432 324 -534
360 -50 17 -56 18 -78 3 -19 -12 -24 -24 -24 -55 0 -22 -5 -40 -11 -40 -6 0
-120 83 -254 185 -468 355 -578 409 -560 273 5 -37 4 -48 -7 -48 -7 0 -108 64
-223 142 -116 78 -257 173 -314 211 -122 83 -243 147 -275 147 -41 0 -50 -23
-32 -77 18 -54 20 -73 6 -73 -5 0 -79 52 -164 115 -270 201 -521 349 -612 362
-75 10 -88 -29 -50 -149 14 -43 13 -46 -2 -40 -9 3 -47 31 -84 62 -81 68 -174
120 -216 120 -19 0 -68 23 -134 62 -150 89 -315 173 -381 194 -51 16 -59 16
-72 3 -13 -13 -12 -25 15 -99 16 -47 30 -91 30 -97 0 -23 -28 -14 -117 35
-300 166 -635 326 -776 372 -119 39 -163 16 -114 -58 13 -21 27 -47 31 -60 l7
-22 -48 19 c-497 203 -667 261 -768 261 -55 0 -85 -16 -85 -47 0 -8 16 -45 35
-81 20 -35 34 -66 33 -68 -2 -1 -78 34 -169 79 -218 108 -318 141 -423 140
-49 -1 -82 -6 -86 -13 -4 -7 -38 -15 -76 -17 -66 -5 -73 -3 -174 45 -200 95
-287 113 -330 67 -24 -25 -24 -42 -4 -134 l7 -34 -40 5 c-22 3 -168 42 -324
86 -327 93 -443 117 -499 102 -21 -6 -43 -17 -50 -25 -17 -21 -18 -20 -170 26
-153 46 -301 61 -399 40 -49 -10 -88 -5 -520 69 -257 44 -474 80 -482 80 -8
-1 -2 -11 16 -26z m9655 -2970 c0 -8 -19 -13 -24 -6 -3 5 1 9 9 9 8 0 15 -2
15 -3z m320 -60 c0 -8 -19 -13 -24 -6 -3 5 1 9 9 9 8 0 15 -2 15 -3z m160 -28
c14 -2 27 -5 30 -6 3 -1 10 -2 15 0 6 1 4 -4 -3 -12 -9 -9 -15 -9 -20 -2 -4 6
-19 10 -34 9 -16 -1 -28 2 -28 6 0 4 -9 6 -20 4 -11 -2 -22 0 -25 4 -4 8 15 7
85 -3z m198 -37 c1 -1 11 -3 22 -4 11 -1 22 -4 25 -5 3 -1 19 -4 35 -5 17 -1
31 -4 33 -5 1 -1 13 -4 27 -5 14 -2 39 -7 55 -10 17 -3 39 -7 50 -8 11 -1 25
-5 30 -8 6 -3 22 -5 38 -4 15 1 27 -1 27 -5 0 -3 13 -5 30 -4 16 1 28 -2 25
-6 -6 -9 -80 -6 -130 6 -16 4 -38 6 -47 6 -10 0 -18 3 -18 8 0 4 -8 7 -17 6
-10 -2 -21 2 -25 8 -5 8 -8 7 -8 -2 0 -7 -3 -11 -7 -9 -5 3 -26 8 -48 12 -41
7 -66 12 -75 15 -3 1 -15 1 -27 0 -13 -1 -23 3 -23 8 0 6 -10 8 -22 5 -18 -4
-20 -3 -8 6 12 8 47 9 58 0z m527 -89 c0 -1 14 -3 30 -5 29 -3 83 -12 135 -21
14 -2 34 -6 45 -8 11 -2 22 -4 25 -6 3 -1 17 -1 33 0 15 1 27 -3 27 -9 0 -6 6
-8 14 -5 8 3 54 -1 103 -9 48 -8 153 -25 233 -37 199 -29 245 -39 155 -33
-112 7 -150 10 -150 12 0 2 -18 4 -40 7 -22 2 -53 6 -70 9 -16 4 -40 7 -52 8
-13 1 -23 5 -23 9 0 4 -7 5 -16 1 -9 -3 -20 0 -25 8 -8 12 -11 12 -19 -1 -5
-8 -10 -10 -10 -5 0 6 -16 11 -35 12 -68 5 -84 7 -80 13 2 3 -19 6 -47 6 -29
0 -53 6 -58 13 -5 10 -9 10 -15 2 -5 -9 -10 -9 -21 0 -8 6 -14 8 -14 4 0 -4
-7 -2 -15 5 -11 9 -15 9 -15 1 0 -7 -5 -9 -11 -5 -6 4 -25 9 -43 11 -17 2 -42
6 -56 8 -14 2 -34 4 -45 4 -17 1 -17 3 -5 11 12 8 65 8 65 0z"/>
<path d="M20125 9354 c-33 -8 -154 -46 -270 -84 -218 -71 -334 -100 -406 -100
-46 0 -45 -4 -23 93 l6 27 -86 0 c-77 0 -93 -3 -148 -31 -100 -51 -222 -94
-399 -143 -92 -25 -178 -50 -193 -56 -65 -24 -78 -8 -54 71 6 22 8 42 5 46
-13 12 -95 3 -164 -18 -37 -12 -153 -59 -258 -105 -214 -93 -316 -129 -398
-139 -66 -8 -71 0 -33 55 35 52 39 74 18 93 -18 16 -23 14 -94 -33 -42 -28
-174 -97 -294 -154 -121 -58 -265 -130 -320 -160 -56 -31 -107 -56 -114 -56
-14 0 -10 29 14 115 8 28 10 54 6 59 -5 5 -109 -57 -237 -142 -257 -169 -375
-237 -481 -278 -87 -33 -102 -27 -84 34 23 76 19 78 -62 33 -40 -22 -150 -87
-243 -145 -445 -274 -812 -402 -1643 -570 -124 -26 -331 -69 -462 -98 l-236
-52 -6 -36 c-3 -20 -16 -57 -29 -83 -28 -54 -29 -52 58 -91 169 -76 404 -276
547 -464 40 -53 106 -128 147 -167 136 -130 211 -233 342 -470 95 -172 190
-285 306 -363 l62 -42 7 36 c7 36 1 164 -12 257 -6 40 -4 47 11 47 38 0 246
-136 435 -286 13 -10 145 -139 292 -286 l268 -266 0 51 c0 104 20 117 109 77
56 -26 183 -121 204 -154 15 -23 167 -176 219 -221 56 -49 181 -111 200 -99 4
3 5 42 2 87 -10 132 -13 132 233 -20 282 -176 449 -275 632 -377 140 -78 157
-85 175 -72 14 8 22 26 24 50 4 48 28 61 84 45 54 -14 229 -102 367 -184 61
-36 121 -65 135 -65 73 0 439 -171 616 -288 119 -79 366 -298 545 -483 128
-132 223 -252 283 -355 37 -65 57 -80 91 -69 45 14 32 82 -54 275 -220 496
-643 980 -1267 1449 -76 56 -138 106 -138 110 0 4 9 16 20 26 11 10 20 22 20
27 0 5 -19 29 -41 53 -61 66 -277 206 -484 314 -246 128 -286 151 -292 167 -8
21 16 44 46 44 27 0 71 24 71 40 0 15 -156 100 -284 156 -68 29 -206 78 -306
108 -100 29 -184 57 -187 60 -9 8 24 43 65 68 l35 22 -134 64 c-252 120 -489
213 -680 266 -48 13 -69 29 -69 52 0 2 22 15 49 29 85 43 79 52 -59 84 -53 12
-181 48 -285 81 -168 53 -339 94 -430 102 -29 3 -30 5 -27 44 1 25 -3 46 -11
53 -8 6 -65 18 -128 26 -216 30 -397 78 -579 154 -245 102 -749 254 -947 286
-104 17 -41 25 189 25 334 0 537 -18 1003 -90 314 -49 484 -67 700 -75 290
-11 464 -41 659 -114 l57 -21 -15 22 c-9 12 -16 40 -16 62 l0 39 43 -5 c24 -3
128 -39 233 -81 412 -164 555 -199 635 -156 15 7 12 14 -23 51 -53 58 -82 98
-69 98 6 0 84 -25 173 -56 458 -158 559 -183 653 -164 30 6 57 14 59 18 2 4
-18 36 -45 72 -31 41 -49 75 -49 93 0 15 4 27 8 27 23 0 338 -76 477 -115 264
-74 378 -92 403 -62 17 20 -6 47 -113 132 -82 65 -124 110 -113 120 2 2 57
-14 124 -35 67 -21 181 -50 255 -64 141 -28 506 -76 574 -76 51 0 115 17 137
37 35 31 -18 92 -119 139 -56 25 -73 38 -73 54 0 18 6 20 73 20 39 0 151 -7
247 -15 261 -23 564 -30 631 -16 72 15 98 33 83 58 -17 29 -115 91 -170 108
-29 8 -55 22 -58 31 -11 30 -6 63 12 72 9 5 130 12 267 15 138 3 304 12 370
21 233 29 229 28 209 39 -48 25 -66 64 -41 85 16 13 191 32 301 32 79 0 237
15 283 27 19 4 22 10 17 26 -9 29 -39 53 -106 84 -61 29 -84 58 -73 92 5 18
14 21 58 21 29 0 221 9 427 20 206 11 383 20 392 20 10 0 22 9 28 20 20 37 -5
85 -68 134 -31 24 -66 54 -77 66 l-20 22 29 24 c20 18 34 23 49 18 42 -13 270
-6 352 11 115 24 276 78 382 128 l91 44 -49 20 c-86 37 -76 44 206 136 249 82
458 142 880 252 306 80 589 159 728 203 56 18 57 19 33 30 -59 27 -166 37
-376 36 -198 0 -347 -10 -775 -49 -88 -8 -254 -22 -370 -30 -201 -15 -309 -25
-422 -41 -58 -7 -61 -4 -37 45 9 17 13 38 10 46 -17 46 -209 43 -411 -6 -335
-81 -423 -93 -489 -65 -44 18 -50 29 -56 101 l-5 60 -62 3 c-71 3 -131 -11
-388 -93 -200 -63 -320 -90 -442 -101 -60 -5 -87 -3 -98 6 -28 23 -16 49 44
96 69 54 76 66 51 89 -61 55 -188 37 -633 -91 -230 -66 -337 -89 -337 -71 0 5
32 42 71 83 59 60 70 77 65 97 -11 46 -66 56 -171 31z"/>
<path d="M12775 7494 c-38 -8 -288 -45 -555 -84 -267 -38 -534 -79 -595 -90
-253 -49 -428 -105 -506 -163 l-44 -32 -325 -6 c-179 -4 -356 -12 -395 -18
-91 -15 -205 -42 -205 -49 0 -18 52 -90 74 -102 48 -25 30 -33 -51 -24 -141
16 -384 8 -612 -20 -118 -14 -218 -26 -222 -26 -35 0 34 -144 92 -192 24 -20
41 -39 38 -42 -2 -3 -127 -19 -277 -36 -150 -17 -327 -40 -394 -51 -119 -20
-314 -67 -370 -88 l-28 -10 21 -36 c25 -42 94 -103 126 -111 27 -7 30 -21 6
-28 -510 -150 -682 -206 -918 -299 -223 -88 -217 -85 -205 -106 13 -25 95 -79
142 -93 21 -6 38 -14 38 -18 0 -3 -62 -32 -137 -64 -500 -212 -960 -490 -1363
-827 -211 -175 -650 -626 -908 -931 -18 -21 209 89 367 179 64 36 269 158 456
270 535 322 840 462 1110 508 59 10 167 18 265 20 l165 2 255 81 c378 120 530
183 638 263 29 22 52 34 52 27 0 -7 -13 -74 -30 -148 -40 -181 -40 -177 13
-147 23 14 152 82 286 152 247 128 374 202 443 257 22 17 41 29 43 26 2 -2
-12 -46 -32 -98 -19 -52 -38 -113 -41 -134 l-5 -39 89 48 c225 122 434 260
635 421 51 41 96 74 101 74 4 0 -2 -24 -13 -52 -24 -60 -61 -188 -57 -200 4
-11 404 228 573 342 77 52 214 150 304 218 90 67 165 121 167 119 2 -2 -12
-71 -31 -153 -19 -82 -35 -158 -35 -168 0 -18 2 -17 28 6 15 14 108 85 207
159 259 190 311 234 492 413 90 88 165 158 167 155 2 -2 0 -24 -4 -49 -12 -59
-12 -180 -1 -180 22 0 738 744 956 994 33 38 77 88 97 110 22 24 32 43 25 45
-7 2 -19 11 -27 21 -14 16 -21 16 -85 4z"/>
<path d="M13318 7500 c-35 -6 -88 -34 -88 -46 0 -4 12 2 27 12 15 9 55 20 88
24 40 4 51 7 35 11 -14 3 -41 2 -62 -1z"/>
<path d="M12930 7460 c0 -5 12 -10 28 -9 24 0 25 1 7 9 -27 12 -35 12 -35 0z"/>
<path d="M12998 7453 c7 -3 16 -2 19 1 4 3 -2 6 -13 5 -11 0 -14 -3 -6 -6z"/>
<path d="M13166 7208 c-8 -18 7 -224 18 -235 16 -16 17 14 3 129 -8 73 -17
116 -21 106z"/>
</g>
</svg>
